\babel@toc {italian}{}
\babel@toc {italian}{}
\contentsline {section}{\numberline {1}Descrizione del circuito da realizzare}{1}% 
\contentsline {section}{\numberline {2}Descrizione del progetto}{2}% 
\contentsline {section}{\numberline {3}Struttura del codice Assembly}{3}% 
\contentsline {section}{\numberline {4}Descrizione del flusso del programma}{4}% 
\contentsline {section}{\numberline {5}Scelte progettuali}{5}% 
