\relax 
\babel@aux{italian}{}
\babel@aux{italian}{}
\@writefile{toc}{\contentsline {section}{\numberline {1}Descrizione del circuito da realizzare}{1}\protected@file@percent }
\@writefile{toc}{\contentsline {section}{\numberline {2}Descrizione del progetto}{2}\protected@file@percent }
\@writefile{toc}{\contentsline {section}{\numberline {3}Struttura del codice Assembly}{3}\protected@file@percent }
\@writefile{toc}{\contentsline {section}{\numberline {4}Descrizione del flusso del programma}{4}\protected@file@percent }
\@writefile{toc}{\contentsline {section}{\numberline {5}Scelte progettuali}{5}\protected@file@percent }
